…
### Colours

`doestyle` provides a mapping from the NSW Government named colour
palette to hex values that can be used in almost any R function that
handles colours. Every colour defined by the [NSW Government Design
System](https://digitalnsw.github.io/nsw-design-system/core/colour/index.html)
is available, including the subset that makes up the Department of
Education brand palette.

To list available colours by name, use `list_doestyle_colours()`:

``` r
list_doestyle_colours()
#> # A tibble: 50 × 2
#>    colour_name hex_value
#>    <chr>       <colour> 
#>  1 grey-01     • #22272B
#>  2 grey-02     • #495054
#>  3 grey-03     • #CDD3D6
#>  4 grey-04     • #EBEBEB
#>  5 green-01    • #004000
#>  6 green-02    • #00AA45
#>  7 green-03    • #A8EDB3
#>  8 green-04    • #DBFADF
#>  9 teal-01     • #0B3F47
#> 10 teal-02     • #2E808E
#> # ℹ 40 more rows
```
…
